id;firstname;surname;born;address
1;"Otto";"Brües";1973;"Bildergasse 23, 63518 Wunzerleben"
2;"Gudrun";"Brug";1969;"Bildergasse 23, 63518 Wunzerleben"
3;"Fritz";"Brügel";1973;"Bildergasse 23, 63518 Wunzerleben"
4;"Berthold";"Brügge";1969;"Bildergasse 23, 63518 Wunzerleben"
5;"Werner";"Brüggemann";1982;"Bildergasse 23, 63518 Wunzerleben"
6;"Marcus";"Brühl";1985;"Bildergasse 23, 63518 Wunzerleben"
7;"Ruth";"Brühl";1967;"Bildergasse 23, 63518 Wunzerleben"
8;"Christoph D.";"Brumme";1982;"Bildergasse 23, 63518 Wunzerleben"
9;"Dominik";"Brun";1988;"Bildergasse 23, 63518 Wunzerleben"
10;"Friederike";"Brun";1973;"Bildergasse 23, 63518 Wunzerleben"
11;"Georg";"Brun";1967;"Bildergasse 23, 63518 Wunzerleben"
12;"Herbert";"Bruna";1982;"Bildergasse 23, 63518 Wunzerleben"
13;"Elfriede";"Brüning";1982;"Bildergasse 23, 63518 Wunzerleben"
14;"Sigrid";"Brunk";1970;"Bildergasse 23, 63518 Wunzerleben"
15;"Eva";"Brunner";1966;"Bildergasse 23, 63518 Wunzerleben"
16;"Rudolf";"Brunngraber";1979;"Bildergasse 23, 63518 Wunzerleben"
17;"Ferdinand";"Brunold";1973;"Bildergasse 23, 63518 Wunzerleben"
18;"Georg";"Brunold";1990;"Bildergasse 23, 63518 Wunzerleben"
19;"Klaus-Dieter";"Brunotte";2009;"Bildergasse 23, 63518 Wunzerleben"
20;"Margarete";"Bruns";1990;"Bildergasse 23, 63518 Wunzerleben"
21;"Max";"Bruns";1998;"Bildergasse 23, 63518 Wunzerleben"
22;"Marianne";"Bruns";2008;"Bildergasse 23, 63518 Wunzerleben"
23;"Günter";"Brus";1991;"Bildergasse 23, 63518 Wunzerleben"
24;"Thomas";"Brussig";1964;"Bildergasse 23, 63518 Wunzerleben"
25;"Alfred";"Brust";1986;"Bildergasse 23, 63518 Wunzerleben"
26;"Werner";"Bucher";2000;"Bildergasse 23, 63518 Wunzerleben"
27;"Lothar-Günther";"Buchheim";1999;"Bildergasse 23, 63518 Wunzerleben"
28;"Gert";"Buchheit";1998;"Bildergasse 23, 63518 Wunzerleben"
29;"Hansgeorg";"Buchholtz";1970;"Bildergasse 23, 63518 Wunzerleben"
30;"Simone";"Buchholz";1969;"Bildergasse 23, 63518 Wunzerleben"
31;"Josef";"Buchhorn";1978;"Bildergasse 23, 63518 Wunzerleben"
32;"Elisabeth";"Büchle";1991;"Bildergasse 23, 63518 Wunzerleben"
33;"Franz";"Büchler";1983;"Bildergasse 23, 63518 Wunzerleben"
34;"August";"Buchner";1967;"Bildergasse 23, 63518 Wunzerleben"
35;"Karl";"Buchner";2005;"Bildergasse 23, 63518 Wunzerleben"
36;"Georg";"Büchner";1995;"Bildergasse 23, 63518 Wunzerleben"
37;"Johannes";"Büchner";1973;"Bildergasse 23, 63518 Wunzerleben"
38;"Andreas Heinrich";"Bucholtz";2005;"Bildergasse 23, 63518 Wunzerleben"
39;"Franz";"Buchrieser";2000;"Bildergasse 23, 63518 Wunzerleben"
40;"Alfred";"Buchwald";1991;"Bildergasse 23, 63518 Wunzerleben"
41;"Valeska";"Buchwald";1981;"Bildergasse 23, 63518 Wunzerleben"
42;"Hans-Christian";"Bues";1967;"Bildergasse 23, 63518 Wunzerleben"
43;"Lutz";"Büge";1971;"Bildergasse 23, 63518 Wunzerleben"
44;"Joseph";"Buhl";1985;"Bildergasse 23, 63518 Wunzerleben"
45;"Jakob";"Bührer";1992;"Bildergasse 23, 63518 Wunzerleben"
46;"Werner";"Buhss";1985;"Bildergasse 23, 63518 Wunzerleben"
47;"Carl";"Bulcke";1991;"Bildergasse 23, 63518 Wunzerleben"
48;"Hansjürgen";"Bulkowski";1999;"Bildergasse 23, 63518 Wunzerleben"
49;"Bruno Horst";"Bull";1983;"Bildergasse 23, 63518 Wunzerleben"
50;"Gisela";"Bulla";1970;"Bildergasse 23, 63518 Wunzerleben"
51;"Hans Georg";"Bulla";1973;"Bildergasse 23, 63518 Wunzerleben"
52;"Heinrich";"Bulthaupt";1978;"Bildergasse 23, 63518 Wunzerleben"
53;"Hanspeter";"Bundi";1986;"Bildergasse 23, 63518 Wunzerleben"
54;"Karl";"Bunje";1988;"Bildergasse 23, 63518 Wunzerleben"
55;"Ruth";"Bunkenburg";2008;"Bildergasse 23, 63518 Wunzerleben"
56;"Elise";"Bürger";1964;"Bildergasse 23, 63518 Wunzerleben"
57;"Gottfried August";"Bürger";1982;"Bildergasse 23, 63518 Wunzerleben"
58;"Hannes";"Burger";1966;"Bildergasse 23, 63518 Wunzerleben"
59;"Hermann";"Burger";1964;"Bildergasse 23, 63518 Wunzerleben"
60;"Luc";"Bürgin";1969;"Bildergasse 23, 63518 Wunzerleben"
61;"Christoph Gottehr";"Burghart";2002;"Bildergasse 23, 63518 Wunzerleben"
62;"Heinrich";"Burhenne";1983;"Bildergasse 23, 63518 Wunzerleben"
63;"Christian Karl Ernst Wilhelm";"Buri";1995;"Bildergasse 23, 63518 Wunzerleben"
64;"Rosmarie";"Buri";1996;"Bildergasse 23, 63518 Wunzerleben"
65;"Heinrich";"Burk";1978;"Bildergasse 23, 63518 Wunzerleben"
66;"Walter";"Burk";2006;"Bildergasse 23, 63518 Wunzerleben"
67;"Erika";"Burkart";1990;"Bildergasse 23, 63518 Wunzerleben"
68;"Karl";"Burkert";1990;"Bildergasse 23, 63518 Wunzerleben"
69;"Robert";"Bürkner";1973;"Bildergasse 23, 63518 Wunzerleben"
70;"Gottlob Wilhelm";"Burmann";1981;"Bildergasse 23, 63518 Wunzerleben"
71;"Brigitte";"Burmeister";1974;"Bildergasse 23, 63518 Wunzerleben"
72;"Albert Karl";"Burmester";1981;"Bildergasse 23, 63518 Wunzerleben"
73;"Marie";"Burmester";2000;"Bildergasse 23, 63518 Wunzerleben"
74;"Olaf-Axel";"Burow";2005;"Bildergasse 23, 63518 Wunzerleben"
75;"Paul";"Burre";1963;"Bildergasse 23, 63518 Wunzerleben"
76;"Friedrich";"Burschell";1966;"Bildergasse 23, 63518 Wunzerleben"
77;"Karin";"Burschik";1997;"Bildergasse 23, 63518 Wunzerleben"
78;"Andrea C.";"Busch";1988;"Bildergasse 23, 63518 Wunzerleben"
79;"Gertrud";"Busch";1981;"Bildergasse 23, 63518 Wunzerleben"
80;"Karl";"Busch";2000;"Bildergasse 23, 63518 Wunzerleben"
81;"Peter";"Busch";1997;"Bildergasse 23, 63518 Wunzerleben"
82;"Petra";"Busch";1990;"Bildergasse 23, 63518 Wunzerleben"
83;"Wilhelm";"Busch";1967;"Bildergasse 23, 63518 Wunzerleben"
84;"Josef";"Büscher";1963;"Bildergasse 23, 63518 Wunzerleben"
85;"Else";"Buschheuer";1972;"Bildergasse 23, 63518 Wunzerleben"
86;"Wolfgang";"Buschmann";2000;"Bildergasse 23, 63518 Wunzerleben"
87;"Johannes";"Buse";1978;"Bildergasse 23, 63518 Wunzerleben"
88;"Michael";"Buselmeier";1997;"Bildergasse 23, 63518 Wunzerleben"
89;"Carl Hermann";"Busse";1980;"Bildergasse 23, 63518 Wunzerleben"
90;"Hermann Eris";"Busse";1993;"Bildergasse 23, 63518 Wunzerleben"
91;"Hugo";"Busse";1983;"Bildergasse 23, 63518 Wunzerleben"
92;"Georg";"Busse-Palma";1997;"Bildergasse 23, 63518 Wunzerleben"
93;"Rudolf";"Bussmann";1978;"Bildergasse 23, 63518 Wunzerleben"
94;"Paul";"Busson";2005;"Bildergasse 23, 63518 Wunzerleben"
95;"Matthias";"Buth";2000;"Bildergasse 23, 63518 Wunzerleben"
96;"Christine";"Dimt";1994;"Bildergasse 23, 63518 Wunzerleben"
97;"Samuel";"von Butschky";1996;"Bildergasse 23, 63518 Wunzerleben"
98;"Olaf";"Büttner";2000;"Bildergasse 23, 63518 Wunzerleben"
99;"Felix";"Buttersack";1967;"Bildergasse 23, 63518 Wunzerleben"
100;"Karl Friedrich";"Butz";1995;"Bildergasse 23, 63518 Wunzerleben"
101;"Johannes";"Butzbach";1986;"Bildergasse 23, 63518 Wunzerleben"
